<svg width="117" height="60" viewBox="0 0 117 60" fill="none" xmlns="http://www.w3.org/2000/svg">
<rect x="1.10757" y="1.17593" width="114.561" height="58.2682" rx="9.38217" fill="#F6F6F6" stroke="#DDDFDD" stroke-width="0.987597"/>
<path fill-rule="evenodd" clip-rule="evenodd" d="M71.4289 29.9696C71.4289 21.7021 65.2887 15 57.7144 15C50.1402 15 44 21.7021 44 29.9696C44 37.4413 49.0152 43.6343 55.5716 44.7573V34.2967H52.0894V29.9696H55.5716V26.6716C55.5716 22.9198 57.619 20.8475 60.7517 20.8475C62.2522 20.8475 63.8216 21.1399 63.8216 21.1399V24.8238H62.0923C60.3886 24.8238 59.8573 25.9777 59.8573 27.1615V29.9696H63.6609L63.0529 34.2967H59.8573V44.7573C66.4137 43.6343 71.4289 37.4413 71.4289 29.9696Z" fill="#1778F2"/>
</svg>
